CompanyName,Website
HealthCheck360,https://www.healthcheck360.com/
Equifax Inc.,https://www.equifax.com/personal/
FIS Global,https://www.fisglobal.com/en
Barclaycard,https://cards.barclaycardus.com/
Groom Law Group Chartered,https://www.groom.com/
Velir,https://www.velir.com/
Allied Payment Network Inc,https://www.alliedpayment.com/
DigiCert,https://www.digicert.com/
Layer 8 Security,https://layer8security.com/
Atos,https://atos.net/en/
Benefitfocus Inc,https://www.benefitfocus.com/
Convergys,https://www.concentrix.com/
ACCENTURE PLC,https://www.accenture.com/ca-en